…
## Otras formas

La función “count()” también permite dar pesos

``` r
BD_MUJERES_ENDIREH2016_sample %>% 
  count(sit_conyugal, niv,  wt = fac_muj) 
```

    ## # A tibble: 74 x 3
    ##    sit_conyugal   niv      n
    ##           <dbl> <dbl>  <dbl>
    ##  1            1     0  92621
    ##  2            1     1   1268
    ##  3            1     2 360831
    ##  4            1     3 403392
    ##  5            1     4 187513
    ##  6            1     5  10704
    ##  7            1     6  42610
    ##  8            1     7  29052
    ##  9            1     8   2896
    ## 10            1     9  15878
    ## # ... with 64 more rows

Es compatible con etiquetas

``` r
BD_MUJERES_ENDIREH2016_sample %>% 
  count(as_label(sit_conyugal), as_label(niv),  wt = fac_muj) 
```

    ## # A tibble: 74 x 3
    ##    `as_label(sit_conyugal)` `as_label(niv)`      n
    ##    <fct>                    <fct>            <dbl>
    ##  1 casada-unida             Ninguna          92621
    ##  2 casada-unida             Preescolar        1268
    ##  3 casada-unida             Primaria        360831
    ##  4 casada-unida             Secundaria      403392
    ##  5 casada-unida             Prepa           187513
    ##  6 casada-unida             Técnico -pri     10704
    ##  7 casada-unida             Técnico -sec     42610
    ##  8 casada-unida             Normal           29052
    ##  9 casada-unida             Normal-lic        2896
    ## 10 casada-unida             Licenciatura     15878
    ## # ... with 64 more rows
…
